[25/04/2015 15:16:16] Mark James *The Logic Bomb* James: tom, don't know if youll get this but just realised bikes got puncture may not make it by 4;30
[25/04/2015 15:20:34] Thomas Barratt: Can you make it? Or should we just call it off?
[25/04/2015 15:27:25] Thomas Barratt: MARK
[25/04/2015 15:31:09] Thomas Barratt: MARK
[25/04/2015 19:22:00] Mark James *The Logic Bomb* James: Sorry for this late reply Tom, I left just after I messaged, I assumed that you two would still go.
[25/04/2015 19:22:40] Mark James *The Logic Bomb* James: I thought that you had already set off to as it was 20 past :L
[25/04/2015 19:22:44] Mark James *The Logic Bomb* James: Sorry :(
[25/04/2015 19:23:47] Thomas Barratt: It's alright, I didn't leave because I didn't know what was happening :) don't worry about it, did you have a good time? :)
[25/04/2015 19:24:06] Mark James *The Logic Bomb* James: Yeah, it was allright
[25/04/2015 19:24:24] Mark James *The Logic Bomb* James: Would have been better if all 3 were there though as we were just scouting new trails.
[25/04/2015 19:24:43] Mark James *The Logic Bomb* James: So I hear you got drafted into shopping, how was that?
[25/04/2015 19:25:51] Thomas Barratt: Oh man, wish I could've gone:) Oh it was amazing:)